Categories:Reading
# see LICENSE
License:GPLv3
Web Site:
Source Code:https://github.com/HoloAddict/Flym
Issue Tracker:https://github.com/HoloAddict/Flym/issues

Auto Name:Flym
Summary:Feed reader
Description:
Based on Sparse RSS, this checks RSS/Atom news feeds, polling for updates
from the device on a regular basis.
.

Repo Type:git
Repo:https://github.com/HoloAddict/Flym.git

Build:1.0.8,9
    commit=v1.0.8

Build:1.0.9,10
    commit=v1.0.9

Build:1.1.1,12
    commit=v1.1.1
    prebuild=sed -i -e '/proguard/d' project.properties

Build:1.1.2,13
    commit=v1.1.2
    prebuild=sed -i -e '/proguard/d' project.properties

Build:1.1.3,14
    commit=v1.1.3
    prebuild=sed -i -e '/proguard/d' project.properties

Build:1.1.4,15
    commit=v1.1.4
    prebuild=sed -i -e '/proguard/d' project.properties

Build:1.2.0,16
    commit=v1.2.0
    prebuild=sed -i -e '/proguard/d' project.properties

Build:1.2.1,17
    commit=v1.2.1
    prebuild=sed -i -e '/proguard/d' project.properties

Build:1.2.2,18
    commit=v1.2.2
    prebuild=sed -i -e '/proguard/d' project.properties

Build:1.2.3,19
    commit=v1.2.3
    prebuild=sed -i -e '/proguard/d' project.properties

Build:1.2.4,20
    commit=v1.2.4
    prebuild=sed -i -e '/proguard/d' project.properties

Build:1.2.5,21
    commit=v1.2.5
    prebuild=sed -i -e '/proguard/d' project.properties

Build:1.2.7,23
    commit=v1.2.7
    prebuild=sed -i -e '/proguard/d' project.properties

Build:1.2.8,24
    commit=v1.2.8
    prebuild=sed -i -e '/proguard/d' project.properties

Build:1.3.2,27
    commit=v1.3.2
    prebuild=sed -i -e '/proguard/d' project.properties

Build:1.3.3,28
    commit=v1.3.3
    prebuild=sed -i -e '/proguard/d' project.properties

Build:1.3.4,29
    commit=v1.3.4
    prebuild=sed -i -e '/proguard/d' project.properties

Build:1.3.5,30
    commit=v1.3.5
    prebuild=sed -i -e '/proguard/d' project.properties

Build:1.3.6,31
    commit=v1.3.6
    prebuild=sed -i -e '/proguard/d' project.properties

Build:1.3.7,32
    commit=v1.3.7
    prebuild=sed -i -e '/proguard/d' project.properties

Build:1.3.8,33
    commit=v1.3.8
    prebuild=sed -i -e '/proguard/d' project.properties

Build:1.4.0,34
    commit=v1.4.0
    prebuild=sed -i -e '/proguard/d' project.properties

Build:1.4.1,35
    commit=v1.4.1
    prebuild=sed -i -e '/proguard/d' project.properties

Build:1.5.0,36
    commit=v1.5.0
    prebuild=sed -i -e '/proguard/d' project.properties

Build:1.5.1,37
    commit=v1.5.1
    prebuild=sed -i -e '/proguard/d' project.properties

Build:1.5.2,38
    commit=v1.5.2
    prebuild=sed -i -e '/proguard/d' project.properties

Build:1.5.3,39
    commit=v1.5.3
    prebuild=sed -i -e '/proguard/d' project.properties

Build:1.5.4,40
    commit=v1.5.4
    prebuild=sed -i -e '/proguard/d' project.properties

Build:1.6.0,41
    commit=v1.6.0
    prebuild=sed -i -e '/proguard/d' project.properties

Build:1.6.1,42
    commit=3802ab2
    prebuild=sed -i -e '/proguard/d' project.properties

Build:1.6.2,43
    commit=v1.6.2
    prebuild=sed -i -e '/proguard/d' project.properties

Build:1.6.3,44
    commit=v1.6.3
    prebuild=sed -i -e '/proguard/d' project.properties

Build:1.6.4,45
    commit=v1.6.4
    prebuild=sed -i -e '/proguard/d' project.properties

Build:1.6.5,46
    commit=v1.6.5
    prebuild=sed -i -e '/proguard/d' project.properties

Build:1.7.2,49
    commit=v1.7.2
    gradle=yes
    rm=libs/*
    prebuild=sed -i -e '/appcompat/acompile "org.jsoup:jsoup:1.7.3"' build.gradle

Build:1.7.3,50
    commit=v1.7.3
    subdir=app
    gradle=yes
    rm=libs/*

Build:1.7.4,51
    commit=v1.7.4
    subdir=app
    gradle=yes
    rm=libs/*

Auto Update Mode:Version v%v
Update Check Mode:Tags
Current Version:1.7.4
Current Version Code:51

